…
I came across [this article](https://www.nytimes.com/2018/01/26/obituaries/elizabeth-hawley-who-chronicled-everest-treks-dies-at-94.html) about the passing of journalist Elizabeth Hawley who chronicled Himalayan mountaineering expeditions for more than 50 years and was one of the founders of the Himalayan Database. The [Himalayan Database](https://www.himalayandatabase.com) is a compilation of mountaineering climbing records for all expeditions in the Himalayas of Nepal. The database has been supplemented by information from books, alpine journals, and correspondence with Himalayan climbers. Elizabeth Hawley took the accuracy of the database seriously. She would often interview mountaineers (more than 15,000 interviews) before and after summit attempts and ask about specific details to gauge authenticity. Elizabeth Hawley died in January 2018 in a small hospital in Nepal. She was 94.

The data includes expeditions from 1905 to (currently) Spring 2022. Expeditions on peaks that span the border of Nepal and China, such as Everest, Cho Oyu, Makalu, and Kangchenjunga, and some smaller border peaks are also included. Each expedition record contains detailed information, including dates, routes, camps, use of supplemental oxygen, successes, deaths, and accidents. Each expedition record includes biographical information for all members listed on the permit and for hired members (e.g., Sherpas) for which there are significant events such as a summit success, death, accident, or rescue. We will explore the database and see if we can develop a simple model to predict a climber's success in summiting.



## EDA
What are the hardest peaks to climb in the Himalayas? To find out, we will sort each peak by the **success rate** (the number of ascents divided by the number of attempts). We will also restrict the data to peaks with at least 100 attempts to summit.

```
## # A tibble: 51 × 4
## # Groups:   peak_name [51]
##    peak_name         ascents attempts success_rate
##    <chr>               <int>    <int>        <dbl>
##  1 Peak 29                 2      104         1.92
##  2 Gaurishankar            6      201         2.99
##  3 Nemjung                 8      133         6.02
##  4 Nuptse                 20      303         6.6 
##  5 Annapurna II           16      224         7.14
##  6 Lhotse Shar            24      276         8.7 
##  7 Dhaulagiri IV          13      129        10.1 
##  8 Himalchuli East        27      246        11.0 
##  9 Annapurna III          31      272        11.4 
## 10 Churen Himal West      14      103        13.6 
## # ℹ 41 more rows
```
…
```r
# Filtering himal_df by only peaks with 100 or more attempts
himal_100 <- himal %>%
  count(peak_id, success) %>%
  group_by(peak_id) %>%
  mutate(attempts = sum(n)) %>%
  filter(success == TRUE) %>%
  filter(attempts > 100)

himal_100 %>% distinct(peak_id)
```

```
## # A tibble: 51 × 1
## # Groups:   peak_id [51]
##    peak_id
##    <chr>  
##  1 AMAD   
##  2 ANN1   
##  3 ANN2   
##  4 ANN3   
##  5 ANN4   
##  6 ANNS   
##  7 APIM   
##  8 BARU   
##  9 BHRI   
## 10 CHAM   
## # ℹ 41 more rows
```

The filter join **semi_join()** of himal using himal_100 gives us only himal observations with peaks that are present in himal_100.


```r
himal_100_df <- himal %>%
  semi_join(himal_100, by = "peak_id")

himal_100_df %>% distinct(peak_id)
```

```
## # A tibble: 51 × 1
##    peak_id
##    <chr>  
##  1 AMAD   
##  2 ANN1   
##  3 ANN2   
##  4 ANN3   
##  5 ANN4   
##  6 ANNS   
##  7 APIM   
##  8 BARU   
##  9 BHRI   
## 10 CHAM   
## # ℹ 41 more rows
```
…
```
## • Dummy variables from: all_nominal(), -success
```
We now have our data recipe. We must run it through the **prep()** and **bake()** functions to see it applied to the training data.

```r
prep(himal_recip) %>%
  bake(new_data = NULL)
```

```
## # A tibble: 51,324 × 16
##    peak_id  year   age hired  solo oxygen_used success season_Spring
##      <dbl> <dbl> <dbl> <int> <int>       <int> <fct>           <dbl>
##  1  -0.107  1978    40     0     0           0 fail                0
##  2  -0.107  1978    41     0     0           0 fail                0
##  3  -0.107  1978    40     0     0           0 fail                0
##  4  -0.107  1978    25     0     0           0 fail                0
##  5  -0.107  1978    41     0     0           0 fail                0
##  6  -0.107  1978    29     0     0           0 fail                0
##  7  -0.107  1979    35     0     0           0 fail                1
##  8  -0.107  1979    44     0     0           0 fail                1
##  9  -0.107  1979    28     0     0           0 fail                1
## 10  -0.107  1979    32     0     0           0 fail                1
## # ℹ 51,314 more rows
## # ℹ 8 more variables: season_Summer <dbl>, season_Winter <dbl>, sex_M <dbl>,
## #   citizenship_Japan <dbl>, citizenship_Nepal <dbl>, citizenship_UK <dbl>,
## #   citizenship_USA <dbl>, citizenship_other <dbl>
```


Let's look at the tidied result of the first step of our recipe, where we convert the predictor *peak_id* into a single set of scores derived from a generalized linear model. 

```r
prep(himal_recip) %>%
  tidy(number = 1) %>%
  arrange(value)
```

```
## # A tibble: 52 × 4
##    level  value terms   id               
##    <chr>  <dbl> <chr>   <chr>            
##  1 SARI  -0.785 peak_id lencode_glm_iEZlM
##  2 DHAM  -0.560 peak_id lencode_glm_iEZlM
##  3 AMAD  -0.107 peak_id lencode_glm_iEZlM
##  4 EVER   0.156 peak_id lencode_glm_iEZlM
##  5 CHOL   0.203 peak_id lencode_glm_iEZlM
##  6 CHOY   0.284 peak_id lencode_glm_iEZlM
##  7 HIML   0.303 peak_id lencode_glm_iEZlM
##  8 CTSE   0.389 peak_id lencode_glm_iEZlM
##  9 PUTH   0.441 peak_id lencode_glm_iEZlM
## 10 MANA   0.485 peak_id lencode_glm_iEZlM
## # ℹ 42 more rows
```
…
