…
```
## [1] 31434
```

```r
# Looking at the top 30 priciest cars
used_cars3 %>%
  arrange(desc(price)) %>%
  select(price) %>%
  head(30)
```

```
## # A tibble: 30 × 1
##         price
##         <dbl>
##  1 3736928711
##  2 3736928711
##  3 3024942282
##  4 3024942282
##  5 3009548743
##  6 1410065407
##  7 1234567890
##  8 1111111111
##  9 1111111111
## 10  987654321
## # ℹ 20 more rows
```
…
